{
  "content": [
    {
      "shopNumber": 565821,
      "shopName": "BHC 송파한양점",
      "categoryId": 1,
      "categoryName": "치킨",
      "categoryEnglishName": "Chicken",
      "address": "서울특별시 송파구 송파동",
      "addressDetail": "183",
      "phoneNumber": "924157892",
      "virtualPhoneNumber": null,
      "franchiseNumber": "2011100212",
      "shopMenuCount": 0,
      "franchiseMenuCount": 0,
      "viewCount": 6395,
      "favoriteCount": 51,
      "callCount": 678,
      "orderCount": 911,
      "shopScore": 0.32,
      "starPointAverage": 4.42,
      "reviewCount": 62,
      "reviewCountCeo": 59,
      "reviewCountImage": 20,
      "minimumOrderPrice": 15000,
      "closeDayDescription": "연중무휴",
      "deliveryInformation": "송파동, 석촌동, 방이동(올림픽선수촌 배달불가)",
      "shopIntroduction": null,
      "useBaropay": true,
      "shopOpened": true,
      "shopLogoImageUrl": "http://woowahan1.vipweb.kr/cache/usr/shoplogoc/2016/10/25/642304_201610251719.jpg",
      "location": {
        "latitude": 37.500465,
        "longitude": 127.1165
      },
      "distance": 0.06383091
    },
    {
      "shopNumber": 524698,
      "shopName": "또래오래 송파점",
      "categoryId": 1,
      "categoryName": "치킨",
      "categoryEnglishName": "Chicken",
      "address": "서울특별시 송파구 송파동",
      "addressDetail": "173",
      "phoneNumber": "924209994",
      "virtualPhoneNumber": null,
      "franchiseNumber": "2011100218",
      "shopMenuCount": 1,
      "franchiseMenuCount": 0,
      "viewCount": 12484,
      "favoriteCount": 82,
      "callCount": 1193,
      "orderCount": 991,
      "shopScore": 0.31,
      "starPointAverage": 4.44,
      "reviewCount": 80,
      "reviewCountCeo": 9,
      "reviewCountImage": 33,
      "minimumOrderPrice": 15000,
      "closeDayDescription": "연중무휴",
      "deliveryInformation": "송파동, 방이동, 잠실4,6동(장미,진주,파크리오),오금동, 가락동 ",
      "shopIntroduction": null,
      "useBaropay": true,
      "shopOpened": true,
      "shopLogoImageUrl": "http://woowahan1.vipweb.kr/cache/usr/shoplogoc/2016/10/25/642304_201610251719.jpg",
      "location": {
        "latitude": 37.502335,
        "longitude": 127.11672
      },
      "distance": 0.25447842
    }
  ],
  "last": false,
  "totalPages": 318,
  "totalElements": 635,
  "size": 2,
  "number": 0,
  "sort": null,
  "first": true,
  "numberOfElements": 2
}